…
  ## numeric variables of interest used in correlation analyses

  num_variables <-
    c("mpg", "disp", "hp", "drat", "wt", "qsec", "carb")

  ## categorical variables

  fct_variables <- c("vs", "am", "gear")

```

```r
> my_cars

# A tibble: 32 × 12
     mpg cyl          disp    hp  drat    wt  qsec vs       am        gear   carb na_dummy
   <dbl> <fct>       <dbl> <dbl> <dbl> <dbl> <dbl> <fct>    <fct>     <fct> <dbl>    <dbl>
 1  21   6 cylinders  160    110  3.9   2.62  16.5 V-shaped manual    4         4       NA
 2  21   6 cylinders  160    110  3.9   2.88  17.0 V-shaped manual    4         4       NA
 3  22.8 4 cylinders  108     93  3.85  2.32  18.6 I-shaped manual    4         1       NA
 4  21.4 6 cylinders  258    110  3.08  3.22  19.4 I-shaped automatic 3         1       NA
 5  18.7 8 cylinders   NA    175  3.15  3.44  17.0 V-shaped automatic 3         2       NA
 6  18.1 NA           225    105  2.76  3.46  20.2 I-shaped automatic 3         1       NA
 7  14.3 8 cylinders  360    245  3.21  3.57  15.8 V-shaped automatic 3         4       NA
 8  24.4 4 cylinders  147.    62  3.69  3.19  20   I-shaped automatic 4         2       NA
 9  22.8 4 cylinders  141.    95  3.92  3.15  22.9 I-shaped automatic 4         2       NA
10  19.2 6 cylinders  168.   123  3.92  3.44  18.3 I-shaped automatic 4         4       NA
# ℹ 22 more rows
# ℹ Use `print(n = ...)` to see more rows
…
  ## Kendall's TauB

  cor_test <-
    correlate_variables(my_cars,
                        variables = num_variables,
                        type = "kendallB",
                        test_method = "bootstrap",
                        adj_method = "BH")

```
```r
> cor_test

# A tibble: 21 × 26
   variable1 variable2 test             stat_name   stat     n df1   df2   estimate_name estimate lower_ci upper_ci p_cutoff p_value
 * <chr>     <chr>     <chr>            <chr>      <dbl> <dbl> <lgl> <lgl> <chr>            <dbl>    <dbl>    <dbl>    <dbl>   <dbl>
 1 mpg       disp      correlation, bo… τB        -0.802    31 NA    NA    τB              -0.802  -0.901   -0.648      0.05   0.001
 2 mpg       hp        correlation, bo… τB        -0.743    32 NA    NA    τB              -0.743  -0.856   -0.616      0.05   0.001
 3 mpg       drat      correlation, bo… τB         0.465    32 NA    NA    τB               0.465   0.280    0.639      0.05   0.001
 4 mpg       wt        correlation, bo… τB        -0.728    32 NA    NA    τB              -0.728  -0.832   -0.597      0.05   0.001
 5 mpg       qsec      correlation, bo… τB         0.315    32 NA    NA    τB               0.315   0.0630   0.499      0.05   0.005
 6 mpg       carb      correlation, bo… τB        -0.504    32 NA    NA    τB              -0.504  -0.657   -0.304      0.05   0.001
 7 disp      hp        correlation, bo… τB         0.674    31 NA    NA    τB               0.674   0.531    0.804      0.05   0.001
 8 disp      drat      correlation, bo… τB        -0.499    31 NA    NA    τB              -0.499  -0.677   -0.281      0.05   0.001
 9 disp      wt        correlation, bo… τB         0.761    31 NA    NA    τB               0.761   0.598    0.861      0.05   0.001
10 disp      qsec      correlation, bo… τB        -0.310    31 NA    NA    τB              -0.310  -0.521   -0.0841     0.05   0.008
# ℹ 11 more rows
# ℹ 12 more variables: p_adjust_method <chr>, p_adjusted <dbl>, effect_name <chr>, effect_size <dbl>, raw_significance <chr>,
#   significance <chr>, n_txt <chr>, stat_txt <chr>, estimate_txt <chr>, ci_text <chr>, effect_size_txt <chr>, plot_caption <chr>
# ℹ Use `print(n = ...)` to see more rows
…
